<?xml version="1.0" standalone="no"?>
<!DOCTYPE svg PUBLIC "-//W3C//DTD SVG 20010904//EN"
 "http://www.w3.org/TR/2001/REC-SVG-20010904/DTD/svg10.dtd">
<svg version="1.0" xmlns="http://www.w3.org/2000/svg"
 width="512.000000pt" height="512.000000pt" viewBox="0 0 512.000000 512.000000"
 preserveAspectRatio="xMidYMid meet">
<metadata>
Created by potrace 1.11, written by Peter Selinger 2001-2013
</metadata>
<g transform="translate(0.000000,512.000000) scale(0.100000,-0.100000)"
fill="#000000" stroke="none">
<path d="M0 2560 l0 -2560 2560 0 2560 0 0 2560 0 2560 -2560 0 -2560 0 0
-2560z m2963 303 c-251 -255 -458 -463 -462 -463 -4 0 -51 45 -106 100 l-100
100 386 388 c212 213 419 422 459 465 l74 78 102 -102 103 -102 -456 -464z
m412 -413 l-875 -875 -405 405 -405 405 102 102 103 103 302 -302 303 -303
772 772 773 773 102 -102 103 -103 -875 -875z m-1603 -772 l-102 -103 -405
405 -405 405 102 102 103 103 405 -405 405 -405 -103 -102z"/>
</g>
</svg>
